…
    (subject_model <- qtl2shiny::project_subject_model(project_df, project_class))

    ## [1] "all_mice_additive"

    (window_Mbp <- 1)

    ## [1] 1

Read peaks in
[peakReadServer()](https://github.com/byandell-sysgen/qtl2shiny/blob/master/R/peakReadApp.R).

    (peak_read_df <- qtl2shiny::read_peaks(project_df, project_class[1],
                            subject_model = subject_model[1]))

    ## # A tibble: 450 × 10
    ##    phenotype_class phenotype          qtl_lod qtl_chr qtl_pos addcovar  intcovar
    ##    <chr>           <chr>                <dbl> <fct>     <dbl> <chr>     <chr>   
    ##  1 group           OF_distance_first4    5.25 1          84.1 ~sex+Coh… none    
    ##  2 group           OF_distance_first4    5.67 2         116.  ~sex+Coh… none    
    ##  3 group           OF_distance_first4    6.55 3          26.5 ~sex+Coh… none    
    ##  4 group           OF_distance_first4    3.65 4          21.7 ~sex+Coh… none    
    ##  5 group           OF_distance_first4    5.03 5         128.  ~sex+Coh… none    
    ##  6 group           OF_distance_first4    3.96 6         139.  ~sex+Coh… none    
    ##  7 group           OF_distance_first4    5.18 7         111.  ~sex+Coh… none    
    ##  8 group           OF_distance_first4    4.11 8          26.8 ~sex+Coh… none    
    ##  9 group           OF_distance_first4    3.18 9          65.2 ~sex+Coh… none    
    ## 10 group           OF_distance_first4    5.06 10        128.  ~sex+Coh… none    
    ## # ℹ 440 more rows
    ## # ℹ 3 more variables: phenotype_original <chr>, subject <chr>, model <chr>
…
### Genotypes

Genotypes and effects estimates are handled with the geno panel
[genoServer()](https://github.com/byandell-sysgen/qtl2shiny/blob/master/R/genoApp.R)

[genoDataServer()](https://github.com/byandell-sysgen/qtl2shiny/blob/master/R/genoDataApp.R)

    geno_table <- qtl2shiny:::pair_geno_table(pair_probs_obj, patterns,
                                               peak_Mbp)
    tidyr::pivot_longer(as.data.frame(geno_table), cols = dplyr::everything(),
                        names_to = "type", values_to = "value") |>
      dplyr::count(type, value)

    ## # A tibble: 37 × 3
    ##    type        value     n
    ##    <chr>       <chr> <int>
    ##  1 ACDEFGH:B   alt       1
    ##  2 ACDEFGH:B   het      28
    ##  3 ACDEFGH:B   ref     232
    ##  4 allele_pair AA        1
    ##  5 allele_pair AB        7
    ##  6 allele_pair AC       18
    ##  7 allele_pair AD        8
    ##  8 allele_pair AE        3
    ##  9 allele_pair AF       13
    ## 10 allele_pair AG        3
    ## # ℹ 27 more rows
…
